DataScience – Sampling Distribution
…
Generate the sampling distribution

Generate the sampling distribution with specify(), generate(), and calculate()

bootstrap_distribution <- sample1  %>% 
  specify(response = volume) %>% 
  generate(reps = 1000, type = "bootstrap") %>% 
  calculate(stat = "mean")

bootstrap_distribution

Response: volume (numeric)
# A tibble: 1,000 × 2
   replicate  stat
       <int> <dbl>
 1         1 1213.
 2         2 1184.
 3         3 1194.
 4         4 1184.
 5         5 1200.
 6         6 1180.
 7         7 1197.
 8         8 1202.
 9         9 1189.
10        10 1193.
# ℹ 990 more rows
…
rnorm()
n, mean, sd
returns n random numbers generated from the distribution

rnorm() to sample from the distribution

rnorm(n, mean, sd): returns n random numbers generated from the distribution

(normy <- tibble(
  x = rnorm(1000, mean = 0, sd = 1)
))

# A tibble: 1,000 × 1
         x
     <dbl>
 1  2.16  
 2  0.0405
 3 -1.95  
 4 -1.30  
 5 -0.139 
 6  1.48  
 7  0.346 
 8 -2.22  
 9  0.0657
10  0.367 
# ℹ 990 more rows
…
qnorm(0.02, mean = 0, sd = 1)

[1] -2.053749

Using other distributions

Change the function’s suffix (the * in r*()) to another distribution and pass the parameters that define that distribution.

runif(n, min, max): returns n random numbers generated from the distribution

(uni<- tibble(
  x = runif(1000, min= 0, max = 1)
))

# A tibble: 1,000 × 1
        x
    <dbl>
 1 1.000 
 2 0.846 
 3 0.0804
 4 0.362 
 5 0.887 
 6 0.0295
 7 0.208 
 8 0.509 
 9 0.299 
10 0.703 
# ℹ 990 more rows
…
Sampling distribution and bootstrapping

Let’s do a walk through from start to finish

The parameter

Generate data for the brain volume of the 28201 grad and undergrad students at UPenn and compute the parameter of interest (mean brain volume)

(population <- tibble(
  subject_id = 1:28201, 
  volume = rnorm(28201, mean = 1200, sd = 100)
))

# A tibble: 28,201 × 2
   subject_id volume
        <int>  <dbl>
 1          1  1166.
 2          2  1262.
 3          3  1312.
 4          4  1038.
 5          5  1084.
 6          6  1355.
 7          7  1275.
 8          8  1036.
 9          9  1238.
10         10  1364.
# ℹ 28,191 more rows

The parameter estimate

Now take a realistic sample of 100 students and compute the paramter estimate (mean brain volume on our sample)

(sample <- population %>%
  sample_n(100))

# A tibble: 100 × 2
   subject_id volume
        <int>  <dbl>
 1      16267  1015.
 2      28046  1363.
 3        952  1318.
 4      22133  1226.
 5       7915  1150.
 6      13497  1045.
 7      11874  1132.
 8      25425  1197.
 9      17087  1170.
10      10368  1235.
# ℹ 90 more rows
…
standard error (the standard deviation of the sampling distribution; parametric)

confidence intervals (the nonparametric approach to quantify spread)

Bootstrap the sampling distribution

Use infer to construct the probability distribution of the values our parameter estimate can take on (the sampling distribution).

(bootstrap_distribution <- sample  %>% 
  specify(response = volume) %>% 
  generate(reps = 1000, type = "bootstrap") %>% 
  calculate(stat = "mean"))

Response: volume (numeric)
# A tibble: 1,000 × 2
   replicate  stat
       <int> <dbl>
 1         1 1203.
 2         2 1199.
 3         3 1209.
 4         4 1200.
 5         5 1195.
 6         6 1197.
 7         7 1200.
 8         8 1218.
 9         9 1195.
10        10 1196.
# ℹ 990 more rows
…
