Problem set 2 – DataScience
…
Problem 2

Download this google sheet as a CSV file and upload it into Colab. Then, use the appropriate function from the readr package to import your CSV file into R. Use the na argument to the function to make sure R can recognize the NA values in the RT_ms column. Also include the col_types() argument to the function to ensure the is_frequent column is logical and RT_ms is a double. Use problems() to return the problematic rows in the data. Repair the problems, then use the rename() function to ensure consistent naming in your columns (use _ not spaces).

Problem 3

Sometimes the best way to learn a new package or function is to explore the documentation. The googlesheets4 package allows you to work with Google Sheets directly from R. Read the documentation for this package and figure out how to connect to a sheet, read its contents, and bring the data into R. Use googlesheets4 to import the Europe tab of the gapminder sheet, available here. Return or print the imported sheet to confirm it was read in correctly. You should see the following output.

✔ Reading from "gapminder".

✔ Range ''Europe''.

# A tibble: 360 × 6
   country continent  year lifeExp     pop gdpPercap
   <chr>   <chr>     <dbl>   <dbl>   <dbl>     <dbl>
 1 Albania Europe     1952    55.2 1282697     1601.
 2 Albania Europe     1957    59.3 1476505     1942.
 3 Albania Europe     1962    64.8 1728137     2313.
 4 Albania Europe     1967    66.2 1984060     2760.
 5 Albania Europe     1972    67.7 2263554     3313.
 6 Albania Europe     1977    68.9 2509048     3533.
 7 Albania Europe     1982    70.4 2780097     3631.
 8 Albania Europe     1987    72   3075321     3739.
 9 Albania Europe     1992    71.6 3326498     2497.
10 Albania Europe     1997    73.0 3428038     3193.
# ℹ 350 more rows
…
